4 C. elegans plate experiment | Portfolio Kjettil Evers
…
In this experiment we will create a dosis response curve from de data provided by J. Louter (INT/ILC). in the experiment adult C.elegans nematodes were exposed to varying concentrations of different compounds. after incubation de number of offspringes where counted. The variables RawData (the outcome - number of offspring counted as an integer value, after incubation time), compName (the generic name of the compound/chemical), the compConcentration (the concentration of the compound), and the expType are the most important variables in this dataset.

The first step is to inspect the excel file to see if something stands out. After looking in the excel file I didn’t find anything in particular, so I loaded in the excel file with the following code:

CE_LIQ_FLOW<- read_excel(here::here(
    "data", 
    "opdracht1",
    "CE.LIQ.FLOW.062_Tidydata.xlsx"))

After loading the excel file the first step is to check the datatypes of each columns.

CE_LIQ_FLOW

## # A tibble: 360 × 34
##    plateRow plateColumn vialNr dropCode expType    expReplicate expName        
##    <lgl>    <lgl>        <dbl> <chr>    <chr>             <dbl> <chr>          
##  1 NA       NA               1 a        experiment            3 CE.LIQ.FLOW.062
##  2 NA       NA               1 b        experiment            3 CE.LIQ.FLOW.062
##  3 NA       NA               1 c        experiment            3 CE.LIQ.FLOW.062
##  4 NA       NA               1 d        experiment            3 CE.LIQ.FLOW.062
##  5 NA       NA               1 e        experiment            3 CE.LIQ.FLOW.062
##  6 NA       NA               2 a        experiment            3 CE.LIQ.FLOW.062
##  7 NA       NA               2 b        experiment            3 CE.LIQ.FLOW.062
##  8 NA       NA               2 c        experiment            3 CE.LIQ.FLOW.062
##  9 NA       NA               2 d        experiment            3 CE.LIQ.FLOW.062
## 10 NA       NA               2 e        experiment            3 CE.LIQ.FLOW.062
## # ℹ 350 more rows
## # ℹ 27 more variables: expDate <dttm>, expResearcher <chr>, expTime <dbl>,
## #   expUnit <chr>, expVolumeCounted <dbl>, RawData <dbl>, compCASRN <chr>,
## #   compName <chr>, compConcentration <chr>, compUnit <chr>,
## #   compDelivery <chr>, compVehicle <chr>, elegansStrain <chr>,
## #   elegansInput <dbl>, bacterialStrain <chr>, bacterialTreatment <chr>,
## #   bacterialOD600 <dbl>, bacterialConcX <dbl>, bacterialVolume <dbl>, …
…
Add last I normalized the data in such a way that the mean value of the negative control (controlNegative) is exactly equal to 1 and all other values are axpressed as an fraction thereof.

# Filter for negative control
CE_LIQ_FLOW_neg<- CE_LIQ_FLOW %>% filter(expType == "controlNegative" )

# determine average negative control
mean(CE_LIQ_FLOW_neg$RawData)

## [1] 85.9

#group and summerize
sum_CE_LIQ_FLOW<- CE_LIQ_FLOW %>% group_by(expType, compName, compConcentration ) %>% summarize(mean = mean(RawData, na.rm = TRUE))
sum_CE_LIQ_FLOW

## # A tibble: 22 × 4
## # Groups:   expType, compName
## #   [6]
##    expType         compName                   compConcentration  mean
##    <chr>           <chr>                                  <dbl> <dbl>
##  1 controlNegative S-medium                           0          85.9
##  2 controlPositive Ethanol                            1.5        49.4
##  3 controlVehicleA Ethanol                            0.5        91.8
##  4 experiment      2,6-diisopropylnaphthalene         0.0000499  89.3
##  5 experiment      2,6-diisopropylnaphthalene         0.000499   83.1
##  6 experiment      2,6-diisopropylnaphthalene         0.00499    75.1
##  7 experiment      2,6-diisopropylnaphthalene         0.0499     59  
##  8 experiment      2,6-diisopropylnaphthalene         0.499      43.3
##  9 experiment      2,6-diisopropylnaphthalene         4.99       40.3
## 10 experiment      decane                             0.0000499  89.8
## # ℹ 12 more rows
…
