8 relational databases | Portfolio Kjettil Evers
…
Next I joined the ggplots to become one with the following code:

results_tidy<- results %>% 
  rename(
    flu = flu_searches,
    dengue = dengue_searches
    )

results_tidy<- pivot_longer(data = results_tidy, cols = c('flu', 'dengue'),  
                             names_to = "disease",  values_to = "searches")

results_tidy

## # A tibble: 112 × 11
##    country    year infant_mortality life_expectancy fertility population   gdp
##    <chr>     <dbl>            <dbl>           <dbl>     <dbl>      <dbl> <dbl>
##  1 Argentina  2015             11.1            76.5      2.15   43416755    NA
##  2 Argentina  2015             11.1            76.5      2.15   43416755    NA
##  3 Bolivia    2015             30.6            73.2      3.14   10724705    NA
##  4 Bolivia    2015             30.6            73.2      3.14   10724705    NA
##  5 Brazil     2015             14.6            74.4      1.78  207847528    NA
##  6 Brazil     2015             14.6            74.4      1.78  207847528    NA
##  7 Mexico     2015             11.3            75.9      2.13  127017224    NA
##  8 Mexico     2015             11.3            75.9      2.13  127017224    NA
##  9 Argentina  2014             11.5            76.3      2.16   42980026    NA
## 10 Argentina  2014             11.5            76.3      2.16   42980026    NA
## # ℹ 102 more rows
## # ℹ 4 more variables: continent <chr>, region <chr>, disease <chr>,
## #   searches <dbl>
…
